{
    "requests": {
        "items": [
            {
                "request_id": "001b8792-0ecf-4c3c-9432-57e103ed0166",
                "timestamp": "",
                "reference_number": "86bbd345-700f-4824-9f04-6aa107979a8f",
                "client_full_name": "Murray Mathiot",
                "phone_number": "+358 508 598 4178",
                "delivery_date": "2019-09-20",
                "address_line_1": null,
                "address_line_2": "Avenue",
                "town": "Kauniainen",
                "county": "Finland",
                "postcode": "2701",
                "delivery_instructions": "amet consectetuer adipiscing elit proin interdum mauris non ligula pellentesque ultrices phasellus id sapien in sapien",
                "household_size": "6",
                "number_of_adults": "1",
                "number_of_children": "1",
                "age_of_children": "5",
                "dietary_requirements": "",
                "feminine_products_required": "FALSE",
                "baby_products_required": "FALSE",
                "pet_food_required": "FALSE",
                "extra_information": "",
                "edit_details_url": "https://docs.google.com/forms/d/e/1kaRXNMym-MIG73c1Ti6chRtBwUkVYYXhbpD5Hgu9DUs/viewForm?edit2=001b8792-0ecf-4c3c-9432-57e103ed0166"
            },
            {
                "request_id": "00295cf0-e196-4ea7-b7cc-6fe969701a2d",
                "timestamp": "",
                "reference_number": "22529585-2809-474d-938d-1e28c4136e4e",
                "client_full_name": "Noam Gilbane",
                "phone_number": "+55 355 324 9442",
                "delivery_date": "2019-06-29",
                "address_line_1": null,
                "address_line_2": "Point",
                "town": "Belford Roxo",
                "county": "Brazil",
                "postcode": "26100-000",
                "delivery_instructions": "eleifend quam a odio in hac habitasse platea dictumst maecenas ut massa quis augue luctus",
                "household_size": "7",
                "number_of_adults": "3",
                "number_of_children": "4",
                "age_of_children": "1",
                "dietary_requirements": "morbi vel lectus in quam fringilla rhoncus mauris enim leo rhoncus sed",
                "feminine_products_required": "TRUE",
                "baby_products_required": "FALSE",
                "pet_food_required": "TRUE",
                "extra_information": "donec vitae nisi nam ultrices libero non mattis pulvinar nulla",
                "edit_details_url": "https://docs.google.com/forms/d/e/1kaRXNMym-MIG73c1Ti6chRtBwUkVYYXhbpD5Hgu9DUs/viewForm?edit2=00295cf0-e196-4ea7-b7cc-6fe969701a2d"
            },
            {
                "request_id": "003ea071-53d2-4957-a995-cbd9b195ecbf",
                "timestamp": "",
                "reference_number": "e31d46d8-1996-484d-a053-480caa3d40f9",
                "client_full_name": "Zach Micklewicz",
                "phone_number": "+86 593 257 9033",
                "delivery_date": "2019-11-01",
                "address_line_1": null,
                "address_line_2": "Crossing",
                "town": "Ziyang",
                "county": "China",
                "postcode": "",
                "delivery_instructions": "nibh quisque id justo sit amet sapien dignissim vestibulum vestibulum ante ipsum primis in faucibus orci luctus",
                "household_size": "4",
                "number_of_adults": "3",
                "number_of_children": "1",
                "age_of_children": "3",
                "dietary_requirements": "convallis morbi odio odio elementum eu interdum eu tincidunt in leo maecenas pulvinar lobortis est phasellus sit amet",
                "feminine_products_required": "TRUE",
                "baby_products_required": "FALSE",
                "pet_food_required": "TRUE",
                "extra_information": "quam turpis adipiscing lorem vitae mattis nibh ligula nec sem duis aliquam convallis nunc proin at turpis a pede posuere",
                "edit_details_url": "https://docs.google.com/forms/d/e/1kaRXNMym-MIG73c1Ti6chRtBwUkVYYXhbpD5Hgu9DUs/viewForm?edit2=003ea071-53d2-4957-a995-cbd9b195ecbf"
            },
            {
                "request_id": "003f2787-8590-4b88-8ad5-ac86537c9ab7",
                "timestamp": "",
                "reference_number": "dddf5f43-c38b-4f89-9cb2-8ca02eaad702",
                "client_full_name": "Gussi Skedgell",
                "phone_number": "+86 439 600 4168",
                "delivery_date": "2020-01-21",
                "address_line_1": null,
                "address_line_2": "",
                "town": "Xiangxi",
                "county": "China",
                "postcode": "",
                "delivery_instructions": "",
                "household_size": "5",
                "number_of_adults": "2",
                "number_of_children": "",
                "age_of_children": "",
                "dietary_requirements": "",
                "feminine_products_required": "FALSE",
                "baby_products_required": "TRUE",
                "pet_food_required": "FALSE",
                "extra_information": "",
                "edit_details_url": "https://docs.google.com/forms/d/e/1kaRXNMym-MIG73c1Ti6chRtBwUkVYYXhbpD5Hgu9DUs/viewForm?edit2=003f2787-8590-4b88-8ad5-ac86537c9ab7"
            },
            {
                "request_id": "003fdcc3-7cb3-4009-9f4c-07cf1ac16035",
                "timestamp": "",
                "reference_number": "6ebf94da-387f-476e-8433-66a2b7a7a66a",
                "client_full_name": "Riobard Witt",
                "phone_number": "+375 767 701 1169",
                "delivery_date": "2019-08-26",
                "address_line_1": null,
                "address_line_2": "Crossing",
                "town": "Druzhny",
                "county": "Belarus",
                "postcode": "",
                "delivery_instructions": "in libero ut massa volutpat convallis morbi odio odio elementum eu interdum eu tincidunt in leo",
                "household_size": "8",
                "number_of_adults": "4",
                "number_of_children": "3",
                "age_of_children": "7",
                "dietary_requirements": "",
                "feminine_products_required": "FALSE",
                "baby_products_required": "TRUE",
                "pet_food_required": "TRUE",
                "extra_information": "",
                "edit_details_url": "https://docs.google.com/forms/d/e/1kaRXNMym-MIG73c1Ti6chRtBwUkVYYXhbpD5Hgu9DUs/viewForm?edit2=003fdcc3-7cb3-4009-9f4c-07cf1ac16035"
            },
            {
                "request_id": "0045a4de-c66d-4f68-8c82-d7fbd36abc90",
                "timestamp": "",
                "reference_number": "19eba447-a477-4067-839c-9d72018f0a11",
                "client_full_name": "Guinevere Bartolomivis",
                "phone_number": "+63 549 965 9737",
                "delivery_date": "2019-09-30",
                "address_line_1": null,
                "address_line_2": "",
                "town": "Badian",
                "county": "Philippines",
                "postcode": "6011",
                "delivery_instructions": "",
                "household_size": "1",
                "number_of_adults": "1",
                "number_of_children": "",
                "age_of_children": "",
                "dietary_requirements": "",
                "feminine_products_required": "FALSE",
                "baby_products_required": "TRUE",
                "pet_food_required": "FALSE",
                "extra_information": "",
                "edit_details_url": "https://docs.google.com/forms/d/e/1kaRXNMym-MIG73c1Ti6chRtBwUkVYYXhbpD5Hgu9DUs/viewForm?edit2=0045a4de-c66d-4f68-8c82-d7fbd36abc90"
            },
            {
                "request_id": "0055279a-2330-439f-8fa5-499ea941c34c",
                "timestamp": "",
                "reference_number": "781987d5-bc37-4296-a6e1-1717328cf0c8",
                "client_full_name": "Rolfe Gallone",
                "phone_number": "+55 608 807 1464",
                "delivery_date": "2019-08-01",
                "address_line_1": null,
                "address_line_2": "Lane",
                "town": "Franca",
                "county": "Brazil",
                "postcode": "14400-000",
                "delivery_instructions": "tincidunt eget tempus vel pede morbi porttitor lorem id ligula suspendisse ornare consequat lectus in est risus auctor",
                "household_size": "8",
                "number_of_adults": "4",
                "number_of_children": "5",
                "age_of_children": "15",
                "dietary_requirements": "",
                "feminine_products_required": "FALSE",
                "baby_products_required": "FALSE",
                "pet_food_required": "TRUE",
                "extra_information": "",
                "edit_details_url": "https://docs.google.com/forms/d/e/1kaRXNMym-MIG73c1Ti6chRtBwUkVYYXhbpD5Hgu9DUs/viewForm?edit2=0055279a-2330-439f-8fa5-499ea941c34c"
            },
            {
                "request_id": "006276fa-eb1a-4523-9832-dce2675afd6d",
                "timestamp": "",
                "reference_number": "246ba9a0-deee-42f5-8a1f-708de31014d9",
                "client_full_name": "Andrus Axell",
                "phone_number": "+351 838 714 1539",
                "delivery_date": "2019-12-10",
                "address_line_1": null,
                "address_line_2": "",
                "town": "Viana do Castelo",
                "county": "Portugal",
                "postcode": "4900-005",
                "delivery_instructions": "",
                "household_size": "3",
                "number_of_adults": "4",
                "number_of_children": "",
                "age_of_children": "",
                "dietary_requirements": "",
                "feminine_products_required": "FALSE",
                "baby_products_required": "TRUE",
                "pet_food_required": "FALSE",
                "extra_information": "",
                "edit_details_url": "https://docs.google.com/forms/d/e/1kaRXNMym-MIG73c1Ti6chRtBwUkVYYXhbpD5Hgu9DUs/viewForm?edit2=006276fa-eb1a-4523-9832-dce2675afd6d"
            },
            {
                "request_id": "006a3401-78c7-4ac8-a193-9b0fc1e590d0",
                "timestamp": "",
                "reference_number": "6b87d3b2-d947-4c6d-ac6d-f352288e029a",
                "client_full_name": "Myrtie Guage",
                "phone_number": "+1 775 649 2371",
                "delivery_date": "2019-04-22",
                "address_line_1": null,
                "address_line_2": "",
                "town": "Reno",
                "county": "United States",
                "postcode": "89519",
                "delivery_instructions": "",
                "household_size": "5",
                "number_of_adults": "0",
                "number_of_children": "",
                "age_of_children": "",
                "dietary_requirements": "",
                "feminine_products_required": "FALSE",
                "baby_products_required": "FALSE",
                "pet_food_required": "FALSE",
                "extra_information": "",
                "edit_details_url": "https://docs.google.com/forms/d/e/1kaRXNMym-MIG73c1Ti6chRtBwUkVYYXhbpD5Hgu9DUs/viewForm?edit2=006a3401-78c7-4ac8-a193-9b0fc1e590d0"
            },
            {
                "request_id": "006ba27e-60df-49d2-9b46-2eae89318271",
                "timestamp": "",
                "reference_number": "d1580d9e-65b2-4764-973f-24e78f8c9e4a",
                "client_full_name": "Stanleigh Bourtoumieux",
                "phone_number": "+1 517 383 3875",
                "delivery_date": "2019-07-10",
                "address_line_1": null,
                "address_line_2": "",
                "town": "Lansing",
                "county": "United States",
                "postcode": "48919",
                "delivery_instructions": "",
                "household_size": "7",
                "number_of_adults": "3",
                "number_of_children": "",
                "age_of_children": "",
                "dietary_requirements": "",
                "feminine_products_required": "TRUE",
                "baby_products_required": "TRUE",
                "pet_food_required": "FALSE",
                "extra_information": "",
                "edit_details_url": "https://docs.google.com/forms/d/e/1kaRXNMym-MIG73c1Ti6chRtBwUkVYYXhbpD5Hgu9DUs/viewForm?edit2=006ba27e-60df-49d2-9b46-2eae89318271"
            }
        ],
        "page": 1,
        "per_page": 10,
        "total_pages": 1000,
        "total_items": 10000
    },
    "lists": {
        "notes": null,
        "items": [
            {
                "item_description": "Egg",
                "single_quantity": "6",
                "single_notes": "",
                "family_of_2_quantity": "6",
                "family_of_2_notes": "",
                "family_of_3_quantity": "12",
                "family_of_3_notes": "",
                "family_of_4_quantity": "12",
                "family_of_4_notes": "",
                "family_of_5+_quantity": "12",
                "family_of_5+_notes": ""
            },
            {
                "item_description": "Bread",
                "single_quantity": "1",
                "single_notes": "Small loaf if available",
                "family_of_2_quantity": "1",
                "family_of_2_notes": "Large loaf if available",
                "family_of_3_quantity": "1",
                "family_of_3_notes": "Large loaf if available",
                "family_of_4_quantity": "2",
                "family_of_4_notes": "",
                "family_of_5+_quantity": "2",
                "family_of_5+_notes": ""
            }
        ]
    }
}